Guitar_FPGA/simulation/qsim/teste0.msim.vcd
$comment
	File created using the following command:
		vcd file teste0.msim.vcd -direction
$end
$date
	Fri Dec 03 00:12:26 2021
$end
$version
	ModelSim Version 2020.1
$end
$timescale
	1ps
$end

$scope module main_vhd_vec_tst $end
$var wire 1 ! acertando_notas $end
$var wire 1 " CLOCK_50 $end
$var wire 1 # d7seg [8] $end
$var wire 1 $ d7seg [7] $end
$var wire 1 % d7seg [6] $end
$var wire 1 & d7seg [5] $end
$var wire 1 ' d7seg [4] $end
$var wire 1 ( d7seg [3] $end
$var wire 1 ) d7seg [2] $end
$var wire 1 * d7seg [1] $end
$var wire 1 + d7seg [0] $end
$var wire 1 , dig7seg [1] $end
$var wire 1 - dig7seg [0] $end
$var wire 1 . ehkey [9] $end
$var wire 1 / ehkey [8] $end
$var wire 1 0 ehkey [7] $end
$var wire 1 1 ehkey [6] $end
$var wire 1 2 ehkey [5] $end
$var wire 1 3 ehkey [4] $end
$var wire 1 4 ehkey [3] $end
$var wire 1 5 ehkey [2] $end
$var wire 1 6 ehkey [1] $end
$var wire 1 7 ehkey [0] $end
$var wire 1 8 ff1 [8] $end
$var wire 1 9 ff1 [7] $end
$var wire 1 : ff1 [6] $end
$var wire 1 ; ff1 [5] $end
$var wire 1 < ff1 [4] $end
$var wire 1 = ff1 [3] $end
$var wire 1 > ff1 [2] $end
$var wire 1 ? ff1 [1] $end
$var wire 1 @ ff1 [0] $end
$var wire 1 A ff2 [8] $end
$var wire 1 B ff2 [7] $end
$var wire 1 C ff2 [6] $end
$var wire 1 D ff2 [5] $end
$var wire 1 E ff2 [4] $end
$var wire 1 F ff2 [3] $end
$var wire 1 G ff2 [2] $end
$var wire 1 H ff2 [1] $end
$var wire 1 I ff2 [0] $end
$var wire 1 J KEY [1] $end
$var wire 1 K KEY [0] $end
$var wire 1 L LED [7] $end
$var wire 1 M LED [6] $end
$var wire 1 N LED [5] $end
$var wire 1 O LED [4] $end
$var wire 1 P LED [3] $end
$var wire 1 Q LED [2] $end
$var wire 1 R LED [1] $end
$var wire 1 S LED [0] $end

$scope module i1 $end
$var wire 1 T gnd $end
$var wire 1 U vcc $end
$var wire 1 V unknown $end
$var wire 1 W devoe $end
$var wire 1 X devclrn $end
$var wire 1 Y devpor $end
$var wire 1 Z ww_devoe $end
$var wire 1 [ ww_devclrn $end
$var wire 1 \ ww_devpor $end
$var wire 1 ] ww_CLOCK_50 $end
$var wire 1 ^ ww_KEY [1] $end
$var wire 1 _ ww_KEY [0] $end
$var wire 1 ` ww_ehkey [9] $end
$var wire 1 a ww_ehkey [8] $end
$var wire 1 b ww_ehkey [7] $end
$var wire 1 c ww_ehkey [6] $end
$var wire 1 d ww_ehkey [5] $end
$var wire 1 e ww_ehkey [4] $end
$var wire 1 f ww_ehkey [3] $end
$var wire 1 g ww_ehkey [2] $end
$var wire 1 h ww_ehkey [1] $end
$var wire 1 i ww_ehkey [0] $end
$var wire 1 j ww_ff1 [8] $end
$var wire 1 k ww_ff1 [7] $end
$var wire 1 l ww_ff1 [6] $end
$var wire 1 m ww_ff1 [5] $end
$var wire 1 n ww_ff1 [4] $end
$var wire 1 o ww_ff1 [3] $end
$var wire 1 p ww_ff1 [2] $end
$var wire 1 q ww_ff1 [1] $end
$var wire 1 r ww_ff1 [0] $end
$var wire 1 s ww_ff2 [8] $end
$var wire 1 t ww_ff2 [7] $end
$var wire 1 u ww_ff2 [6] $end
$var wire 1 v ww_ff2 [5] $end
$var wire 1 w ww_ff2 [4] $end
$var wire 1 x ww_ff2 [3] $end
$var wire 1 y ww_ff2 [2] $end
$var wire 1 z ww_ff2 [1] $end
$var wire 1 { ww_ff2 [0] $end
$var wire 1 | ww_acertando_notas $end
$var wire 1 } ww_LED [7] $end
$var wire 1 ~ ww_LED [6] $end
$var wire 1 !! ww_LED [5] $end
$var wire 1 "! ww_LED [4] $end
$var wire 1 #! ww_LED [3] $end
$var wire 1 $! ww_LED [2] $end
$var wire 1 %! ww_LED [1] $end
$var wire 1 &! ww_LED [0] $end
$var wire 1 '! ww_dig7seg [1] $end
$var wire 1 (! ww_dig7seg [0] $end
$var wire 1 )! ww_d7seg [8] $end
$var wire 1 *! ww_d7seg [7] $end
$var wire 1 +! ww_d7seg [6] $end
$var wire 1 ,! ww_d7seg [5] $end
$var wire 1 -! ww_d7seg [4] $end
$var wire 1 .! ww_d7seg [3] $end
$var wire 1 /! ww_d7seg [2] $end
$var wire 1 0! ww_d7seg [1] $end
$var wire 1 1! ww_d7seg [0] $end
$var wire 1 2! \GERADOR_CLOCK2|sinal~clkctrl_INCLK_bus\ [3] $end
$var wire 1 3! \GERADOR_CLOCK2|sinal~clkctrl_INCLK_bus\ [2] $end
$var wire 1 4! \GERADOR_CLOCK2|sinal~clkctrl_INCLK_bus\ [1] $end
$var wire 1 5! \GERADOR_CLOCK2|sinal~clkctrl_INCLK_bus\ [0] $end
$var wire 1 6! \GERADOR_CLOCK|sinal~clkctrl_INCLK_bus\ [3] $end
$var wire 1 7! \GERADOR_CLOCK|sinal~clkctrl_INCLK_bus\ [2] $end
$var wire 1 8! \GERADOR_CLOCK|sinal~clkctrl_INCLK_bus\ [1] $end
$var wire 1 9! \GERADOR_CLOCK|sinal~clkctrl_INCLK_bus\ [0] $end
$var wire 1 :! \CLOCK_50~inputclkctrl_INCLK_bus\ [3] $end
$var wire 1 ;! \CLOCK_50~inputclkctrl_INCLK_bus\ [2] $end
$var wire 1 <! \CLOCK_50~inputclkctrl_INCLK_bus\ [1] $end
$var wire 1 =! \CLOCK_50~inputclkctrl_INCLK_bus\ [0] $end
$var wire 1 >! \ehkey[0]~inputclkctrl_INCLK_bus\ [3] $end
$var wire 1 ?! \ehkey[0]~inputclkctrl_INCLK_bus\ [2] $end
$var wire 1 @! \ehkey[0]~inputclkctrl_INCLK_bus\ [1] $end
$var wire 1 A! \ehkey[0]~inputclkctrl_INCLK_bus\ [0] $end
$var wire 1 B! \KEY[0]~input_o\ $end
$var wire 1 C! \KEY[1]~input_o\ $end
$var wire 1 D! \ehkey[1]~input_o\ $end
$var wire 1 E! \ehkey[2]~input_o\ $end
$var wire 1 F! \ehkey[3]~input_o\ $end
$var wire 1 G! \ehkey[4]~input_o\ $end
$var wire 1 H! \ehkey[5]~input_o\ $end
$var wire 1 I! \ehkey[6]~input_o\ $end
$var wire 1 J! \ehkey[7]~input_o\ $end
$var wire 1 K! \ff1[0]~output_o\ $end
$var wire 1 L! \ff1[1]~output_o\ $end
$var wire 1 M! \ff1[2]~output_o\ $end
$var wire 1 N! \ff1[3]~output_o\ $end
$var wire 1 O! \ff1[4]~output_o\ $end
$var wire 1 P! \ff1[5]~output_o\ $end
$var wire 1 Q! \ff1[6]~output_o\ $end
$var wire 1 R! \ff1[7]~output_o\ $end
$var wire 1 S! \ff1[8]~output_o\ $end
$var wire 1 T! \ff2[0]~output_o\ $end
$var wire 1 U! \ff2[1]~output_o\ $end
$var wire 1 V! \ff2[2]~output_o\ $end
$var wire 1 W! \ff2[3]~output_o\ $end
$var wire 1 X! \ff2[4]~output_o\ $end
$var wire 1 Y! \ff2[5]~output_o\ $end
$var wire 1 Z! \ff2[6]~output_o\ $end
$var wire 1 [! \ff2[7]~output_o\ $end
$var wire 1 \! \ff2[8]~output_o\ $end
$var wire 1 ]! \acertando_notas~output_o\ $end
$var wire 1 ^! \LED[0]~output_o\ $end
$var wire 1 _! \LED[1]~output_o\ $end
$var wire 1 `! \LED[2]~output_o\ $end
$var wire 1 a! \LED[3]~output_o\ $end
$var wire 1 b! \LED[4]~output_o\ $end
$var wire 1 c! \LED[5]~output_o\ $end
$var wire 1 d! \LED[6]~output_o\ $end
$var wire 1 e! \LED[7]~output_o\ $end
$var wire 1 f! \dig7seg[0]~output_o\ $end
$var wire 1 g! \dig7seg[1]~output_o\ $end
$var wire 1 h! \d7seg[0]~output_o\ $end
$var wire 1 i! \d7seg[1]~output_o\ $end
$var wire 1 j! \d7seg[2]~output_o\ $end
$var wire 1 k! \d7seg[3]~output_o\ $end
$var wire 1 l! \d7seg[4]~output_o\ $end
$var wire 1 m! \d7seg[5]~output_o\ $end
$var wire 1 n! \d7seg[6]~output_o\ $end
$var wire 1 o! \d7seg[7]~output_o\ $end
$var wire 1 p! \d7seg[8]~output_o\ $end
$var wire 1 q! \CLOCK_50~input_o\ $end
$var wire 1 r! \CLOCK_50~inputclkctrl_outclk\ $end
$var wire 1 s! \GERADOR_CLOCK|Add0~0_combout\ $end
$var wire 1 t! \GERADOR_CLOCK|count~3_combout\ $end
$var wire 1 u! \GERADOR_CLOCK|Add0~1\ $end
$var wire 1 v! \GERADOR_CLOCK|Add0~3\ $end
$var wire 1 w! \GERADOR_CLOCK|Add0~4_combout\ $end
$var wire 1 x! \GERADOR_CLOCK|Add0~5\ $end
$var wire 1 y! \GERADOR_CLOCK|Add0~6_combout\ $end
$var wire 1 z! \GERADOR_CLOCK|count~1_combout\ $end
$var wire 1 {! \GERADOR_CLOCK|Add0~7\ $end
$var wire 1 |! \GERADOR_CLOCK|Add0~8_combout\ $end
$var wire 1 }! \GERADOR_CLOCK|count~2_combout\ $end
$var wire 1 ~! \GERADOR_CLOCK|Add0~9\ $end
$var wire 1 !" \GERADOR_CLOCK|Add0~10_combout\ $end
$var wire 1 "" \GERADOR_CLOCK|Equal0~2_combout\ $end
$var wire 1 #" \GERADOR_CLOCK|count~4_combout\ $end
$var wire 1 $" \GERADOR_CLOCK|Add0~11\ $end
$var wire 1 %" \GERADOR_CLOCK|Add0~12_combout\ $end
$var wire 1 &" \GERADOR_CLOCK|count~5_combout\ $end
$var wire 1 '" \GERADOR_CLOCK|Add0~13\ $end
$var wire 1 (" \GERADOR_CLOCK|Add0~14_combout\ $end
$var wire 1 )" \GERADOR_CLOCK|Equal0~1_combout\ $end
$var wire 1 *" \GERADOR_CLOCK|count~0_combout\ $end
$var wire 1 +" \GERADOR_CLOCK|Add0~2_combout\ $end
$var wire 1 ," \GERADOR_CLOCK|Equal0~0_combout\ $end
$var wire 1 -" \GERADOR_CLOCK|sinal~0_combout\ $end
$var wire 1 ." \GERADOR_CLOCK|sinal~feeder_combout\ $end
$var wire 1 /" \GERADOR_CLOCK|sinal~q\ $end
$var wire 1 0" \GERADOR_CLOCK|sinal~clkctrl_outclk\ $end
$var wire 1 1" \GERADOR_RANDOM1|rand_temp[1]~feeder_combout\ $end
$var wire 1 2" \GERADOR_RANDOM1|rand_temp[2]~feeder_combout\ $end
$var wire 1 3" \GERADOR_RANDOM1|rand_temp[3]~feeder_combout\ $end
$var wire 1 4" \GERADOR_RANDOM1|rand_temp[4]~feeder_combout\ $end
$var wire 1 5" \GERADOR_RANDOM1|rand_temp[5]~feeder_combout\ $end
$var wire 1 6" \GERADOR_RANDOM1|rand_temp[6]~feeder_combout\ $end
$var wire 1 7" \GERADOR_RANDOM1|rand_temp[7]~0_combout\ $end
$var wire 1 8" \GERADOR_RANDOM1|temp~0_combout\ $end
$var wire 1 9" \FLIP_FLOP00|Q~feeder_combout\ $end
$var wire 1 :" \ehkey[0]~input_o\ $end
$var wire 1 ;" \ehkey[0]~inputclkctrl_outclk\ $end
$var wire 1 <" \FLIP_FLOP00|Q~q\ $end
$var wire 1 =" \FLIP_FLOP01|Q~feeder_combout\ $end
$var wire 1 >" \FLIP_FLOP01|Q~q\ $end
$var wire 1 ?" \FLIP_FLOP02|Q~feeder_combout\ $end
$var wire 1 @" \FLIP_FLOP02|Q~q\ $end
$var wire 1 A" \FLIP_FLOP03|Q~feeder_combout\ $end
$var wire 1 B" \FLIP_FLOP03|Q~q\ $end
$var wire 1 C" \FLIP_FLOP04|Q~feeder_combout\ $end
$var wire 1 D" \FLIP_FLOP04|Q~q\ $end
$var wire 1 E" \FLIP_FLOP05|Q~q\ $end
$var wire 1 F" \FLIP_FLOP06|Q~feeder_combout\ $end
$var wire 1 G" \FLIP_FLOP06|Q~q\ $end
$var wire 1 H" \FLIP_FLOP07|Q~feeder_combout\ $end
$var wire 1 I" \FLIP_FLOP07|Q~q\ $end
$var wire 1 J" \FLIP_FLOP08|Q~feeder_combout\ $end
$var wire 1 K" \FLIP_FLOP08|Q~q\ $end
$var wire 1 L" \GERADOR_RANDOM2|rand_temp[1]~feeder_combout\ $end
$var wire 1 M" \GERADOR_RANDOM2|rand_temp[2]~feeder_combout\ $end
$var wire 1 N" \GERADOR_RANDOM2|rand_temp[3]~feeder_combout\ $end
$var wire 1 O" \GERADOR_RANDOM2|rand_temp[4]~feeder_combout\ $end
$var wire 1 P" \GERADOR_RANDOM2|rand_temp[5]~feeder_combout\ $end
$var wire 1 Q" \GERADOR_RANDOM2|rand_temp[6]~feeder_combout\ $end
$var wire 1 R" \GERADOR_RANDOM2|rand_temp[7]~feeder_combout\ $end
$var wire 1 S" \GERADOR_RANDOM2|rand_temp[8]~0_combout\ $end
$var wire 1 T" \GERADOR_RANDOM2|temp~0_combout\ $end
$var wire 1 U" \FLIP_FLOP10|Q~feeder_combout\ $end
$var wire 1 V" \FLIP_FLOP10|Q~q\ $end
$var wire 1 W" \FLIP_FLOP11|Q~feeder_combout\ $end
$var wire 1 X" \FLIP_FLOP11|Q~q\ $end
$var wire 1 Y" \FLIP_FLOP12|Q~feeder_combout\ $end
$var wire 1 Z" \FLIP_FLOP12|Q~q\ $end
$var wire 1 [" \FLIP_FLOP13|Q~q\ $end
$var wire 1 \" \FLIP_FLOP14|Q~feeder_combout\ $end
$var wire 1 ]" \FLIP_FLOP14|Q~q\ $end
$var wire 1 ^" \FLIP_FLOP15|Q~feeder_combout\ $end
$var wire 1 _" \FLIP_FLOP15|Q~q\ $end
$var wire 1 `" \FLIP_FLOP16|Q~feeder_combout\ $end
$var wire 1 a" \FLIP_FLOP16|Q~q\ $end
$var wire 1 b" \FLIP_FLOP17|Q~feeder_combout\ $end
$var wire 1 c" \FLIP_FLOP17|Q~q\ $end
$var wire 1 d" \FLIP_FLOP18|Q~feeder_combout\ $end
$var wire 1 e" \FLIP_FLOP18|Q~q\ $end
$var wire 1 f" \nota0~feeder_combout\ $end
$var wire 1 g" \ehkey[8]~input_o\ $end
$var wire 1 h" \nota0~q\ $end
$var wire 1 i" \nota1~feeder_combout\ $end
$var wire 1 j" \ehkey[9]~input_o\ $end
$var wire 1 k" \nota1~q\ $end
$var wire 1 l" \process_0~0_combout\ $end
$var wire 1 m" \acertando_notas~reg0feeder_combout\ $end
$var wire 1 n" \acertando_notas~reg0_q\ $end
$var wire 1 o" \CONTADOR|temp[0]~21_combout\ $end
$var wire 1 p" \CONTADOR|temp[1]~7_combout\ $end
$var wire 1 q" \CONTADOR|temp[1]~8\ $end
$var wire 1 r" \CONTADOR|temp[2]~9_combout\ $end
$var wire 1 s" \CONTADOR|temp[2]~10\ $end
$var wire 1 t" \CONTADOR|temp[3]~11_combout\ $end
$var wire 1 u" \CONTADOR|temp[3]~12\ $end
$var wire 1 v" \CONTADOR|temp[4]~13_combout\ $end
$var wire 1 w" \CONTADOR|temp[4]~14\ $end
$var wire 1 x" \CONTADOR|temp[5]~15_combout\ $end
$var wire 1 y" \CONTADOR|temp[5]~16\ $end
$var wire 1 z" \CONTADOR|temp[6]~17_combout\ $end
$var wire 1 {" \CONTADOR|temp[6]~18\ $end
$var wire 1 |" \CONTADOR|temp[7]~19_combout\ $end
$var wire 1 }" \GERADOR_CLOCK2|count~0_combout\ $end
$var wire 1 ~" \GERADOR_CLOCK2|sinal~0_combout\ $end
$var wire 1 !# \GERADOR_CLOCK2|sinal~feeder_combout\ $end
$var wire 1 "# \GERADOR_CLOCK2|sinal~q\ $end
$var wire 1 ## \GERADOR_CLOCK2|sinal~clkctrl_outclk\ $end
$var wire 1 $# \count[0]~1_combout\ $end
$var wire 1 %# \Add0~1_combout\ $end
$var wire 1 &# \count~0_combout\ $end
$var wire 1 '# \Add0~0_combout\ $end
$var wire 1 (# \Equal1~0_combout\ $end
$var wire 1 )# \dig7seg[0]~reg0_q\ $end
$var wire 1 *# \Equal1~1_combout\ $end
$var wire 1 +# \dig7seg[1]~reg0_q\ $end
$var wire 1 ,# \d7seg[2]~0_combout\ $end
$var wire 1 -# \d7seg~1_combout\ $end
$var wire 1 .# \d7seg~2_combout\ $end
$var wire 1 /# \d7seg[2]~reg0_q\ $end
$var wire 1 0# \d7seg~3_combout\ $end
$var wire 1 1# \d7seg~4_combout\ $end
$var wire 1 2# \d7seg[3]~reg0_q\ $end
$var wire 1 3# \d7seg~5_combout\ $end
$var wire 1 4# \d7seg~6_combout\ $end
$var wire 1 5# \d7seg[5]~reg0_q\ $end
$var wire 1 6# \d7seg~7_combout\ $end
$var wire 1 7# \d7seg~8_combout\ $end
$var wire 1 8# \d7seg[6]~reg0_q\ $end
$var wire 1 9# \CONTADOR|temp\ [7] $end
$var wire 1 :# \CONTADOR|temp\ [6] $end
$var wire 1 ;# \CONTADOR|temp\ [5] $end
$var wire 1 <# \CONTADOR|temp\ [4] $end
$var wire 1 =# \CONTADOR|temp\ [3] $end
$var wire 1 ># \CONTADOR|temp\ [2] $end
$var wire 1 ?# \CONTADOR|temp\ [1] $end
$var wire 1 @# \CONTADOR|temp\ [0] $end
$var wire 1 A# \GERADOR_RANDOM1|rand_temp\ [7] $end
$var wire 1 B# \GERADOR_RANDOM1|rand_temp\ [6] $end
$var wire 1 C# \GERADOR_RANDOM1|rand_temp\ [5] $end
$var wire 1 D# \GERADOR_RANDOM1|rand_temp\ [4] $end
$var wire 1 E# \GERADOR_RANDOM1|rand_temp\ [3] $end
$var wire 1 F# \GERADOR_RANDOM1|rand_temp\ [2] $end
$var wire 1 G# \GERADOR_RANDOM1|rand_temp\ [1] $end
$var wire 1 H# \GERADOR_RANDOM1|rand_temp\ [0] $end
$var wire 1 I# \GERADOR_CLOCK|count\ [7] $end
$var wire 1 J# \GERADOR_CLOCK|count\ [6] $end
$var wire 1 K# \GERADOR_CLOCK|count\ [5] $end
$var wire 1 L# \GERADOR_CLOCK|count\ [4] $end
$var wire 1 M# \GERADOR_CLOCK|count\ [3] $end
$var wire 1 N# \GERADOR_CLOCK|count\ [2] $end
$var wire 1 O# \GERADOR_CLOCK|count\ [1] $end
$var wire 1 P# \GERADOR_CLOCK|count\ [0] $end
$var wire 1 Q# \GERADOR_RANDOM2|rand_temp\ [8] $end
$var wire 1 R# \GERADOR_RANDOM2|rand_temp\ [7] $end
$var wire 1 S# \GERADOR_RANDOM2|rand_temp\ [6] $end
$var wire 1 T# \GERADOR_RANDOM2|rand_temp\ [5] $end
$var wire 1 U# \GERADOR_RANDOM2|rand_temp\ [4] $end
$var wire 1 V# \GERADOR_RANDOM2|rand_temp\ [3] $end
$var wire 1 W# \GERADOR_RANDOM2|rand_temp\ [2] $end
$var wire 1 X# \GERADOR_RANDOM2|rand_temp\ [1] $end
$var wire 1 Y# \GERADOR_RANDOM2|rand_temp\ [0] $end
$var wire 1 Z# count [3] $end
$var wire 1 [# count [2] $end
$var wire 1 \# count [1] $end
$var wire 1 ]# count [0] $end
$var wire 1 ^# \GERADOR_CLOCK2|count\ [1] $end
$var wire 1 _# \GERADOR_CLOCK2|count\ [0] $end
$var wire 1 `# \ALT_INV_ehkey[0]~inputclkctrl_outclk\ $end
$var wire 1 a# \ALT_INV_ehkey[8]~input_o\ $end
$var wire 1 b# \ALT_INV_ehkey[9]~input_o\ $end
$upscope $end
$upscope $end
$enddefinitions $end
#0
$dumpvars
0!
0"
0T
1U
xV
1W
1X
1Y
1Z
1[
1\
0]
0|
xB!
xC!
0D!
0E!
0F!
0G!
0H!
0I!
0J!
0K!
0L!
0M!
0N!
0O!
0P!
0Q!
0R!
0S!
0T!
0U!
0V!
0W!
0X!
0Y!
0Z!
0[!
0\!
0]!
0^!
0_!
0`!
0a!
0b!
0c!
0d!
0e!
0f!
0g!
0h!
0i!
0j!
0k!
0l!
0m!
0n!
0o!
0p!
0q!
0r!
1s!
0t!
0u!
1v!
0w!
0x!
0y!
0z!
1{!
0|!
0}!
0~!
0!"
0""
0#"
1$"
0%"
0&"
0'"
0("
0)"
0*"
0+"
0,"
0-"
0."
0/"
00"
01"
02"
03"
04"
05"
06"
17"
18"
09"
1:"
1;"
0<"
0="
0>"
0?"
0@"
0A"
0B"
0C"
0D"
0E"
0F"
0G"
0H"
0I"
0J"
0K"
0L"
0M"
0N"
0O"
0P"
0Q"
0R"
1S"
1T"
0U"
0V"
0W"
0X"
0Y"
0Z"
0["
0\"
0]"
0^"
0_"
0`"
0a"
0b"
0c"
0d"
0e"
1f"
0g"
0h"
1i"
1j"
0k"
0l"
0m"
0n"
1o"
0p"
0q"
0r"
1s"
0t"
0u"
0v"
1w"
0x"
0y"
0z"
1{"
0|"
0}"
0~"
0!#
0"#
0##
1$#
0%#
0&#
0'#
1(#
0)#
0*#
0+#
1,#
1-#
0.#
0/#
10#
01#
02#
13#
04#
05#
16#
07#
08#
0`#
1a#
0b#
1.
0/
00
01
02
03
04
05
06
17
x^
x_
1`
0a
0b
0c
0d
0e
0f
0g
0h
1i
0j
0k
0l
0m
0n
0o
0p
0q
0r
0s
0t
0u
0v
0w
0x
0y
0z
0{
0}
0~
0!!
0"!
0#!
0$!
0%!
0&!
0'!
0(!
0)!
0*!
0+!
0,!
0-!
0.!
0/!
00!
01!
09#
0:#
0;#
0<#
0=#
0>#
0?#
0@#
0A#
0B#
0C#
0D#
0E#
0F#
0G#
0H#
0I#
0J#
0K#
0L#
0M#
0N#
0O#
0P#
0Q#
0R#
0S#
0T#
0U#
0V#
0W#
0X#
0Y#
0Z#
0[#
0\#
0]#
0^#
x_#
1:!
1;!
1<!
0=!
16!
17!
18!
09!
1>!
1?!
1@!
1A!
12!
13!
14!
05!
0#
0$
0%
0&
0'
0(
0)
0*
0+
0,
0-
08
09
0:
0;
0<
0=
0>
0?
0@
0A
0B
0C
0D
0E
0F
0G
0H
0I
xJ
xK
0L
0M
0N
0O
0P
0Q
0R
0S
$end
#500
1"
1]
1q!
1=!
1r!
1P#
0s!
1u!
1~"
1!#
1+"
1*"
#1000
0"
0]
0q!
0=!
0r!
#1500
1"
1]
1q!
1=!
1r!
0P#
1O#
1"#
15!
0+"
0v!
1s!
0u!
1+"
1v!
1w!
0*"
1##
0w!
1*"
1]#
0$#
1%#
0,#
0-#
1.#
00#
03#
14#
06#
04#
0.#
#2000
0"
0]
0q!
0=!
0r!
#2500
1"
1]
1q!
1=!
1r!
1P#
0s!
1u!
0~"
0!#
0+"
0v!
1w!
0*"
#3000
0"
0]
0q!
0=!
0r!
#3500
1"
1]
1q!
1=!
1r!
0P#
1N#
0O#
0"#
05!
1+"
1v!
0w!
1x!
1s!
0u!
0+"
1y!
1w!
0x!
1*"
0##
0y!
1z!
0*"
0z!
#4000
0"
0]
0q!
0=!
0r!
#4500
1"
1]
1q!
1=!
1r!
1P#
0s!
1u!
1~"
1!#
1+"
1*"
#5000
0"
0]
0q!
0=!
0r!
#5500
1"
1]
1q!
1=!
1r!
0P#
1O#
1"#
15!
0+"
0v!
1s!
0u!
1+"
1v!
0w!
1x!
0*"
1##
1y!
1w!
0x!
1*"
0]#
1\#
1)#
0y!
1z!
1*#
1$#
1,#
0z!
1f!
1(!
1-
#6000
0"
0]
0q!
0=!
0r!
#6500
1"
1]
1q!
1=!
1r!
1P#
0s!
1u!
0~"
0!#
0+"
0v!
0w!
1x!
0*"
1y!
1z!
#7000
0"
0]
0q!
0=!
0r!
#7500
1"
1]
1q!
1=!
1r!
0P#
0N#
1M#
0O#
0"#
05!
1+"
1v!
0y!
0{!
1w!
0x!
1s!
0u!
0+"
1y!
1{!
1|!
0z!
0w!
1*"
0##
1}!
0|!
1z!
0*"
0}!
#8000
0"
0]
0q!
0=!
0r!
#8500
1"
1]
1q!
1=!
1r!
1P#
0s!
1u!
1~"
1!#
1+"
1*"
1,"
#9000
0"
0]
0q!
0=!
0r!
#9500
1"
1]
1q!
1=!
1r!
0P#
1O#
1"#
15!
0+"
0v!
1s!
0u!
1+"
1v!
1w!
0*"
0,"
1##
0w!
1*"
1]#
0)#
1+#
0$#
0%#
0,#
1g!
0f!
1'!
0(!
0-
1,
#10000
0"
0]
0q!
0=!
0r!
#10500
1"
1]
1q!
1=!
1r!
1P#
0s!
1u!
0~"
0!#
0+"
0v!
1,"
1w!
0*"
0,"
#11000
0"
0]
0q!
0=!
0r!
#11500
1"
1]
1q!
1=!
1r!
0P#
1N#
0O#
0"#
05!
1+"
1v!
0w!
1x!
1s!
0u!
0+"
0y!
0{!
1w!
0x!
1*"
0##
1y!
1{!
1|!
0z!
0*"
1}!
0|!
1z!
0}!
#12000
0"
0]
0q!
0=!
0r!
#12500
1"
1]
1q!
1=!
1r!
1P#
0s!
1u!
1~"
1!#
1+"
1*"
#13000
0"
0]
0q!
0=!
0r!
#13500
1"
1]
1q!
1=!
1r!
0P#
1O#
1"#
15!
0+"
0v!
1s!
0u!
1+"
1v!
0w!
1x!
0*"
1##
0y!
0{!
1w!
0x!
1*"
0]#
0\#
1)#
1y!
1{!
1|!
0z!
0*#
1$#
1,#
1}!
0|!
1z!
1-#
10#
13#
16#
1f!
0}!
1(!
1-
#14000
0"
0]
0q!
0=!
0r!
#14500
1"
1]
1q!
1=!
1r!
1P#
0s!
1u!
0~"
0!#
0+"
0v!
0w!
1x!
0*"
0y!
0{!
1|!
0z!
1}!
#15000
0"
0]
0q!
0=!
0r!
#15500
1"
1]
1q!
1=!
1r!
0P#
0N#
0M#
1L#
0O#
0"#
05!
1+"
1v!
0|!
1~!
1y!
1{!
1w!
0x!
1s!
0u!
0+"
0y!
1|!
0~!
1z!
1!"
0}!
0w!
1*"
0##
1t!
0!"
1}!
1""
0z!
0*"
0t!
0""
#16000
0"
0]
0q!
0=!
0r!
#16500
1"
1]
1q!
1=!
1r!
1P#
0s!
1u!
1~"
1!#
1+"
1*"
#17000
0"
0]
0q!
0=!
0r!
#17500
1"
1]
1q!
1=!
1r!
0P#
1O#
1"#
15!
0+"
0v!
1s!
0u!
1+"
1v!
1w!
0*"
1##
0w!
1*"
1]#
0)#
0+#
0$#
1%#
0,#
0-#
1.#
00#
03#
14#
06#
0g!
0f!
04#
0.#
0'!
0(!
0-
0,
#18000
0"
0]
0q!
0=!
0r!
#18500
1"
1]
1q!
1=!
1r!
1P#
0s!
1u!
0~"
0!#
0+"
0v!
1w!
0*"
#19000
0"
0]
0q!
0=!
0r!
#19500
1"
1]
1q!
1=!
1r!
0P#
1N#
0O#
0"#
05!
1+"
1v!
0w!
1x!
1s!
0u!
0+"
1y!
1w!
0x!
1*"
0##
0y!
1z!
0*"
0z!
#20000
0"
0.
1/
0]
1a
0`
0j"
1g"
0q!
0a#
1b#
0=!
0r!
#20500
1"
1]
1q!
1=!
1r!
1P#
0s!
1u!
1~"
1!#
1+"
1*"
#21000
0"
0]
0q!
0=!
0r!
#21500
1"
1]
1q!
1=!
1r!
0P#
1O#
1"#
15!
0+"
0v!
1s!
0u!
1+"
1v!
0w!
1x!
0*"
1##
1y!
1w!
0x!
1*"
0]#
1\#
1)#
0y!
1z!
1*#
1$#
1,#
0z!
1f!
1(!
1-
#22000
0"
0]
0q!
0=!
0r!
#22500
1"
1]
1q!
1=!
1r!
1P#
0s!
1u!
0~"
0!#
0+"
0v!
0w!
1x!
0*"
1y!
1z!
#23000
0"
0]
0q!
0=!
0r!
#23500
1"
1]
1q!
1=!
1r!
0P#
0N#
1M#
0O#
0"#
05!
1+"
1v!
0y!
0{!
1w!
0x!
1s!
0u!
0+"
1y!
1{!
0|!
1~!
0z!
0w!
1*"
0##
1!"
0}!
1|!
0~!
1z!
0*"
0!"
1}!
1t!
1""
0t!
0""
#24000
0"
0]
0q!
0=!
0r!
#24500
1"
1]
1q!
1=!
1r!
1P#
0s!
1u!
1~"
1!#
1+"
1*"
1,"
#25000
0"
0]
0q!
0=!
0r!
#25500
1"
1]
1q!
1=!
1r!
0P#
1O#
1"#
15!
0+"
0v!
1s!
0u!
1+"
1v!
1w!
0*"
0,"
1##
0w!
1*"
1]#
0)#
1+#
0$#
0%#
0,#
1g!
0f!
1'!
0(!
0-
1,
#26000
0"
0]
0q!
0=!
0r!
#26500
1"
1]
1q!
1=!
1r!
1P#
0s!
1u!
0~"
0!#
0+"
0v!
1,"
1w!
0*"
0,"
#27000
0"
0]
0q!
0=!
0r!
#27500
1"
1]
1q!
1=!
1r!
0P#
1N#
0O#
0"#
05!
1+"
1v!
0w!
1x!
1s!
0u!
0+"
0y!
0{!
1w!
0x!
1*"
0##
1y!
1{!
0|!
1~!
0z!
0*"
1!"
0}!
1|!
0~!
1z!
0!"
1}!
1t!
1""
0t!
0""
#28000
0"
0]
0q!
0=!
0r!
#28500
1"
1]
1q!
1=!
1r!
1P#
0s!
1u!
1~"
1!#
1+"
1*"
#29000
0"
0]
0q!
0=!
0r!
#29500
1"
1]
1q!
1=!
1r!
0P#
1O#
1"#
15!
0+"
0v!
1s!
0u!
1+"
1v!
0w!
1x!
0*"
1##
0y!
0{!
1w!
0x!
1*"
0]#
0\#
1)#
1y!
1{!
0|!
1~!
0z!
0*#
1$#
1,#
1!"
0}!
1|!
0~!
1z!
1-#
10#
13#
16#
1f!
0!"
1}!
1t!
1""
1(!
0t!
0""
1-
#30000
0"
0]
0q!
0=!
0r!
#30500
1"
1]
1q!
1=!
1r!
1P#
0s!
1u!
0~"
0!#
0+"
0v!
0w!
1x!
0*"
0y!
0{!
0|!
1~!
0z!
1!"
0}!
1t!
#31000
0"
0]
0q!
0=!
0r!
